<svg xmlns="http://www.w3.org/2000/svg" xml:space="preserve" fill-rule="evenodd" stroke-linejoin="round" stroke-miterlimit="2" clip-rule="evenodd" viewBox="0 0 93 24">
  <path fill="none" d="M0 0h92.1v23.51H0z"/>
    <path fill="#ed2b19" d="M20.36 5.2c0-.9-.72-1.62-1.61-1.62H4.1c-.89 0-1.62.72-1.62 1.61v14.66c0 .89.73 1.6 1.62 1.6h14.65a1.6 1.6 0 0 0 1.61-1.6V5.19Zm-1.77.16h-4.3c-1.09 0-1.97.88-1.97 1.97V17.9a1.8 1.8 0 0 0 1.79 1.79h4.48V17.9h-4.48V7.15h4.48v-1.8Zm-8.06 6.26V7.34c0-1.1-.89-1.98-1.99-1.98H4.26v14.32h1.79v-6.27h2.69a1.78 1.78 0 0 0 1.79-1.79ZM8.74 7.16H6.05v4.47h2.69V7.16Z"/>
    <path fill-rule="nonzero" d="m24.15 18.76 8.16.03v-1.83l-6.21-.02V13.2l5.31.02V11.5l-5.3-.02.01-3.64 6.22.02V6.02L24.2 6l-.04 12.76Zm9.97.04h4.34a4.6 4.6 0 0 0 4.35-2.77c.09-.2.16-.46.22-.73a21 21 0 0 0 .15-2.87c0-1.29-.03-2.2-.08-2.72a4.13 4.13 0 0 0-.6-1.5 4.3 4.3 0 0 0-3.88-2.17l-4.46-.02-.04 12.77ZM36.1 7.85h2.31c.99 0 1.74.35 2.28 1.09.27.3.43.68.5 1.17.05.48.06 1.27.06 2.38 0 1.13-.02 1.92-.08 2.33-.05.41-.2.77-.41 1.04-.49.73-1.28 1.1-2.37 1.1h-2.32l.03-9.11Zm9.26-1.75h1.98l-.04 12.73h-1.97zm6.85 12.74 1.94.01.03-11.05 3.5.01V6.1l-8.93-.02V7.8h3.5l-.04 11.05Zm6.06-6.36c0 1.45.03 2.44.12 2.96.05.27.1.5.17.68l.25.56c.3.59.8 1.11 1.49 1.56.66.47 1.5.72 2.5.74a4.54 4.54 0 0 0 4.01-2.28c.22-.3.36-.72.45-1.24.08-.52.12-1.5.12-2.96 0-1.48-.03-2.47-.1-2.97a4.45 4.45 0 0 0-1.9-2.8A4.54 4.54 0 0 0 62.85 6a4.41 4.41 0 0 0-4 2.28c-.2.3-.35.72-.44 1.22-.09.5-.13 1.49-.13 2.98Zm1.94 0c0-1.25.06-2.11.15-2.56.09-.43.25-.79.5-1.06.2-.27.47-.48.81-.66a2.77 2.77 0 0 1 2.37.01c.32.18.57.4.77.66.25.27.43.63.51 1.06.1.45.13 1.31.12 2.57 0 1.25-.04 2.1-.13 2.54-.1.45-.27.81-.52 1.08-.2.27-.45.48-.78.64-.34.2-.73.29-1.2.29-.45 0-.84-.1-1.16-.3a1.98 1.98 0 0 1-.8-.64 2.15 2.15 0 0 1-.5-1.08c-.1-.45-.15-1.3-.14-2.55Zm11.38-4.63 3.03.01c.63 0 1.1.15 1.42.4.4.3.62.8.64 1.45 0 .56-.19 1.03-.54 1.4-.36.41-.9.6-1.64.62h-2.92V7.85ZM69.62 18.9l1.94.01.01-5.45h2.48l2.62 5.46 2.3.01-2.95-5.67a3.55 3.55 0 0 0 2.49-3.53A3.4 3.4 0 0 0 77.24 7a3.94 3.94 0 0 0-2.6-.85l-4.98-.01-.04 12.76Zm11.11-3.08-1.28 1.45a7.28 7.28 0 0 0 4.88 1.77c2.92-.02 4.43-1.26 4.49-3.7 0-.91-.28-1.7-.84-2.38a3.95 3.95 0 0 0-2.65-1.3l-1.43-.2a2.54 2.54 0 0 1-1.38-.64c-.29-.3-.43-.62-.43-1 .02-.61.24-1.08.65-1.38.4-.3.9-.45 1.5-.44a5.8 5.8 0 0 1 3.15 1l1.08-1.6a7.17 7.17 0 0 0-4.14-1.34 4.32 4.32 0 0 0-3.05 1.03 3.44 3.44 0 0 0-1.12 2.69c0 .93.28 1.72.87 2.37a4.22 4.22 0 0 0 2.5 1.22c.62.1 1.17.17 1.7.24 1.1.2 1.66.78 1.65 1.73-.04 1.16-.86 1.75-2.53 1.77a5.61 5.61 0 0 1-3.62-1.29Z"/>
</svg>
